{
  "project_info": {
    "project_number": "1065584733212",
    "firebase_url": "https://travalogue-f0abd.firebaseio.com",
    "project_id": "travalogue-f0abd",
    "storage_bucket": "travalogue-f0abd.appspot.com"
  },
  "client": [
    {
      "client_info": {
        "mobilesdk_app_id": "1:1065584733212:android:37d08a2da1e406000fc3d9",
        "android_client_info": {
          "package_name": "com.centroid.travalogue"
        }
      },
      "oauth_client": [
        {
          "client_id": "1065584733212-ur3kv49ivpmhempv76840d3hfl6i9o7j.apps.googleusercontent.com",
          "client_type": 3
        }
      ],
      "api_key": [
        {
          "current_key": "AIzaSyCuO_EzVGlaEnS8XnfY0Ermfy9DK3FiehI"
        }
      ],
      "services": {
        "appinvite_service": {
          "other_platform_oauth_client": [
            {
              "client_id": "1065584733212-ur3kv49ivpmhempv76840d3hfl6i9o7j.apps.googleusercontent.com",
              "client_type": 3
            }
          ]
        }
      }
    }
  ],
  "configuration_version": "1"
}